[
  {
    "id": -9171332113085773044,
    "title": "title",
    "description": "desc"
  },
  {
    "id": -667618286290622163,
    "title": "New York New York",
    "description": "So Good They Named It Twice"
  },
  {
    "id": 7262981814726823444,
    "title": "Ring of Kerry",
    "description": "Some place in the Kingdom"
  },
  {
    "id": -4507081533763236003,
    "title": "Waterford City",
    "description": "You get great Blaas Here!!"
  },
  {
    "id": 962936116952996323,
    "title": "New York New York",
    "description": "So Good They Named It Twice"
  },
  {
    "id": 72391819434317643,
    "title": "Ring of Kerry",
    "description": "Some place in the Kingdom"
  },
  {
    "id": -1461445566836585175,
    "title": "Waterford City",
    "description": "You get great Blaas Here!!"
  }
]